server/dump.vcd
$date
	Sat Oct 18 16:37:49 2025
$end

$version
	Synopsys VCS version R-2020.12-SP2_Full64
$end

$timescale
	1ps
$end

$comment Csum: 1 3c2267c7e3d3c3a5 $end


$scope module $unit $end
$upscope $end


$scope module tb_aligner $end
$var reg 1 ! clk $end
$var reg 1 " reset_n $end

$scope begin unnamed$$_vcs_2 $end
$upscope $end


$scope begin unnamed$$_vcs_0 $end
$upscope $end


$scope begin unnamed$$_vcs_1 $end
$upscope $end


$scope begin unnamed$$_vcs_3 $end
$upscope $end


$scope module apb_if $end
$var reg 1 # pclk $end
$var reg 1 $ preset_n $end
$var reg 16 % paddr [15:0] $end
$var reg 1 & pwrite $end
$var reg 1 ' psel $end
$var reg 1 ( penable $end
$var reg 32 ) pwdata [31:0] $end
$var reg 1 * pready $end
$var reg 32 + prdata [31:0] $end
$var reg 1 , pslverr $end

$scope task _$$txp______assert_APB_ASSERT_VALID_PENABLE $end
$upscope $end

$upscope $end


$scope module md_rx_if $end
$var reg 1 - clk $end
$var reg 1 . md_rx_valid $end
$var reg 32 / md_rx_data [31:0] $end
$var reg 2 0 md_rx_offset [1:0] $end
$var reg 3 1 md_rx_size [2:0] $end
$var reg 1 2 md_rx_ready $end
$var reg 1 3 md_rx_err $end
$var reg 1 4 reset_n $end

$scope task _$$txp______assert_ASSERT_VALID_SIZES $end
$upscope $end


$scope task _$$txp______assert_ASSERT_VALID_OFFSETS $end
$upscope $end

$upscope $end


$scope module md_tx_if $end
$var reg 1 5 clk $end
$var reg 1 6 reset_n $end
$var reg 1 7 md_tx_ready $end
$var reg 1 8 md_tx_err $end
$var reg 1 9 md_tx_valid $end
$var reg 32 : md_tx_data [31:0] $end
$var reg 2 ; md_tx_offset [1:0] $end
$var reg 3 < md_tx_size [2:0] $end

$scope task _$$txp______assert_ASSERT_VALID_SIZES $end
$upscope $end


$scope task _$$txp______assert_ASSERT_VALID_OFFSETS $end
$upscope $end

$upscope $end


$scope module dut $end
$var wire 1 = clk $end
$var wire 1 > reset_n $end
$var wire 16 ? paddr [15:0] $end
$var wire 1 @ pwrite $end
$var wire 1 A psel $end
$var wire 1 B penable $end
$var wire 32 C pwdata [31:0] $end
$var wire 1 D pready $end
$var reg 32 E prdata [31:0] $end
$var reg 1 F pslverr $end
$var wire 1 G md_rx_valid $end
$var wire 32 H md_rx_data [31:0] $end
$var wire 2 I md_rx_offset [1:0] $end
$var wire 3 J md_rx_size [2:0] $end
$var reg 1 K md_rx_ready $end
$var reg 1 L md_rx_err $end
$var reg 1 M md_tx_valid $end
$var reg 32 N md_tx_data [31:0] $end
$var reg 2 O md_tx_offset [1:0] $end
$var reg 3 P md_tx_size [2:0] $end
$var wire 1 Q md_tx_ready $end
$var wire 1 R md_tx_err $end
$var reg 1 S irq $end

$scope module core $end
$var wire 1 = pclk $end
$var wire 1 > preset_n $end
$var wire 16 ? paddr [15:0] $end
$var wire 1 @ pwrite $end
$var wire 1 A psel $end
$var wire 1 B penable $end
$var wire 32 C pwdata [31:0] $end
$var wire 1 D pready $end
$var reg 32 T prdata [31:0] $end
$var reg 1 U pslverr $end
$var wire 1 = md_rx_clk $end
$var wire 1 G md_rx_valid $end
$var wire 32 H md_rx_data [31:0] $end
$var wire 2 I md_rx_offset [1:0] $end
$var wire 3 J md_rx_size [2:0] $end
$var reg 1 V md_rx_ready $end
$var reg 1 W md_rx_err $end
$var wire 1 = md_tx_clk $end
$var reg 1 X md_tx_valid $end
$var reg 32 Y md_tx_data [31:0] $end
$var reg 2 Z md_tx_offset [1:0] $end
$var reg 3 [ md_tx_size [2:0] $end
$var wire 1 Q md_tx_ready $end
$var wire 1 R md_tx_err $end
$var wire 1 \ irq $end
$var wire 8 ] rx_ctrl_2_regs_status_cnt_drop [7:0] $end
$var wire 1 ^ regs_2_rx_ctrl_ctrl_clr $end
$var wire 1 _ rx_ctrl_2_rx_fifo_push_valid $end
$var wire 37 ` rx_ctrl_2_rx_fifo_push_data [36:0] $end
$var wire 1 a rx_fifo_2_rx_ctrl_push_ready $end
$var wire 1 b rx_fifo_2_rx_ctrl_push_full $end
$var wire 1 c rx_fifo_2_regs_fifo_full $end
$var wire 1 d rx_fifo_2_regs_fifo_empty $end
$var wire 4 e rx_fifo_2_regs_fifo_lvl [3:0] $end
$var wire 4 f tx_fifo_2_regs_fifo_lvl [3:0] $end
$var wire 1 g tx_fifo_2_regs_fifo_empty $end
$var wire 1 h tx_fifo_2_regs_fifo_full $end
$var wire 1 i tx_fifo_2_tx_ctrl_pop_valid $end
$var wire 37 j tx_fifo_2_tx_ctrl_pop_data [36:0] $end
$var wire 1 k tx_fifo_2_tx_ctrl_pop_ready $end
$var wire 1 l rx_fifo_2_ctrl_pop_valid $end
$var wire 37 m rx_fifo_2_ctrl_pop_data [36:0] $end
$var wire 1 n rx_fifo_2_ctrl_pop_ready $end
$var wire 1 o ctrl_2_tx_fifo_push_valid $end
$var wire 37 p ctrl_2_tx_fifo_push_data [36:0] $end
$var wire 1 q ctrl_2_tx_fifo_push_ready $end
$var wire 2 r regs_2_ctrl_ctrl_offset [1:0] $end
$var wire 3 s regs_2_ctrl_ctrl_size [2:0] $end

$scope module rx_ctrl $end
$var wire 1 > preset_n $end
$var wire 1 = pclk $end
$var wire 1 ^ clr_cnt_dop $end
$var wire 8 ] status_cnt_drop [7:0] $end
$var wire 1 = md_rx_clk $end
$var wire 1 G md_rx_valid $end
$var wire 32 H md_rx_data [31:0] $end
$var wire 2 I md_rx_offset [1:0] $end
$var wire 3 J md_rx_size [2:0] $end
$var wire 1 t md_rx_ready $end
$var reg 1 u md_rx_err $end
$var wire 1 _ push_valid $end
$var wire 37 ` push_data [36:0] $end
$var wire 1 a push_ready $end
$var wire 1 b rx_fifo_full $end
$var reg 8 v md_rx_clk_status_cnt_drop [7:0] $end

$scope module synch_status_cnt_drop $end
$var wire 1 = clk $end
$var wire 8 w i [7:0] $end
$var reg 8 x o [7:0] $end
$upscope $end

$upscope $end


$scope module rx_fifo $end
$var wire 1 > reset_n $end
$var wire 1 = push_clk $end
$var wire 1 _ push_valid $end
$var wire 37 ` push_data [36:0] $end
$var wire 1 a push_ready $end
$var wire 1 b push_full $end
$var wire 1 y push_empty $end
$var reg 4 z push_fifo_lvl [3:0] $end
$var wire 1 = pop_clk $end
$var wire 1 l pop_valid $end
$var wire 37 m pop_data [36:0] $end
$var wire 1 n pop_ready $end
$var wire 1 c pop_full $end
$var wire 1 d pop_empty $end
$var reg 4 { pop_fifo_lvl [3:0] $end
$var wire 3 | rd_ptr_push [2:0] $end
$var reg 3 } rd_ptr_pop [2:0] $end
$var reg 3 ~ next_wr_ptr_push [2:0] $end
$var reg 3 "! next_rd_ptr_pop [2:0] $end
$var reg 3 "" wr_ptr_push [2:0] $end
$var wire 3 "# wr_ptr_pop [2:0] $end
$var reg 4 "$ push_fifo_lvl_dly [3:0] $end
$var reg 4 "% pop_fifo_lvl_dly [3:0] $end
$upscope $end


$scope module tx_fifo $end
$var wire 1 > reset_n $end
$var wire 1 = push_clk $end
$var wire 1 o push_valid $end
$var wire 37 p push_data [36:0] $end
$var wire 1 q push_ready $end
$var wire 1 h push_full $end
$var wire 1 g push_empty $end
$var reg 4 "& push_fifo_lvl [3:0] $end
$var wire 1 = pop_clk $end
$var wire 1 i pop_valid $end
$var wire 37 j pop_data [36:0] $end
$var wire 1 k pop_ready $end
$var wire 1 "' pop_full $end
$var wire 1 "( pop_empty $end
$var reg 4 ") pop_fifo_lvl [3:0] $end
$var wire 3 "* rd_ptr_push [2:0] $end
$var reg 3 "+ rd_ptr_pop [2:0] $end
$var reg 3 ", next_wr_ptr_push [2:0] $end
$var reg 3 "- next_rd_ptr_pop [2:0] $end
$var reg 3 ". wr_ptr_push [2:0] $end
$var wire 3 "/ wr_ptr_pop [2:0] $end
$var reg 4 "0 push_fifo_lvl_dly [3:0] $end
$var reg 4 "1 pop_fifo_lvl_dly [3:0] $end
$upscope $end


$scope module tx_ctrl $end
$var wire 1 i pop_valid $end
$var wire 37 j pop_data [36:0] $end
$var wire 1 k pop_ready $end
$var wire 1 "2 md_tx_valid $end
$var wire 32 "3 md_tx_data [31:0] $end
$var wire 2 "4 md_tx_offset [1:0] $end
$var wire 3 "5 md_tx_size [2:0] $end
$var wire 1 Q md_tx_ready $end
$upscope $end


$scope module ctrl $end
$var wire 1 > reset_n $end
$var wire 1 = clk $end
$var wire 1 l pop_valid $end
$var wire 37 m pop_data [36:0] $end
$var reg 1 "6 pop_ready $end
$var reg 1 "7 push_valid $end
$var reg 37 "8 push_data [36:0] $end
$var wire 1 q push_ready $end
$var wire 2 r ctrl_offset [1:0] $end
$var wire 3 s ctrl_size [2:0] $end
$var reg 2 "9 unaligned_offset [1:0] $end
$var reg 3 ": unaligned_size [2:0] $end
$var reg 32 "; unaligned_data [31:0] $end
$var reg 3 "< unaligned_bytes_processed [2:0] $end
$var reg 3 "= aligned_bytes_processed [2:0] $end
$upscope $end


$scope module regs $end
$var wire 1 = pclk $end
$var wire 1 > presetn $end
$var wire 16 ? paddr [15:0] $end
$var wire 1 @ pwrite $end
$var wire 1 A psel $end
$var wire 1 B penable $end
$var wire 32 C pwdata [31:0] $end
$var reg 1 "> pready $end
$var reg 32 "? prdata [31:0] $end
$var reg 1 "@ pslverr $end
$var reg 2 "A ctrl_offset [1:0] $end
$var reg 3 "B ctrl_size [2:0] $end
$var reg 1 "C ctrl_clr $end
$var wire 8 ] status_cnt_drop [7:0] $end
$var wire 4 e status_rx_lvl [3:0] $end
$var wire 4 f status_tx_lvl [3:0] $end
$var wire 1 d rx_fifo_empty $end
$var wire 1 c rx_fifo_full $end
$var wire 1 g tx_fifo_empty $end
$var wire 1 h tx_fifo_full $end
$var wire 1 "D max_drop $end
$var wire 1 \ irq $end
$var wire 16 "E addr_aligned [15:0] $end
$var reg 1 "F wr_ctrl_is_illegal $end
$var wire 3 "G ctrl_size_wr_val [2:0] $end
$var wire 2 "H ctrl_offset_wr_val [1:0] $end
$var reg 32 "I ctrl_rd_val [31:0] $end
$var reg 1 "J irqen_rx_fifo_empty $end
$var reg 1 "K irqen_rx_fifo_full $end
$var reg 1 "L irqen_tx_fifo_empty $end
$var reg 1 "M irqen_tx_fifo_full $end
$var reg 1 "N irqen_max_drop $end
$var reg 1 "O irq_rx_fifo_empty $end
$var reg 1 "P irq_rx_fifo_full $end
$var reg 1 "Q irq_tx_fifo_empty $end
$var reg 1 "R irq_tx_fifo_full $end
$var reg 1 "S irq_max_drop $end
$var reg 32 "T status_rd_val [31:0] $end
$var reg 32 "U irqen_rd_val [31:0] $end
$var reg 32 "V irq_rd_val [31:0] $end
$var wire 1 "W edge_rx_fifo_empty $end
$var wire 1 "X edge_rx_fifo_full $end
$var wire 1 "Y edge_tx_fifo_empty $end
$var wire 1 "Z edge_tx_fifo_full $end
$var wire 1 "[ edge_max_drop $end

$scope module edge_detect_rx_fifo_empty $end
$var wire 1 = clk $end
$var wire 1 > reset_n $end
$var wire 1 d data $end
$var reg 1 "\ detected $end
$var reg 1 "] dly1_data $end
$upscope $end


$scope module edge_detect_rx_fifo_full $end
$var wire 1 = clk $end
$var wire 1 > reset_n $end
$var wire 1 c data $end
$var reg 1 "^ detected $end
$var reg 1 "_ dly1_data $end
$upscope $end


$scope module edge_detect_tx_fifo_empty $end
$var wire 1 = clk $end
$var wire 1 > reset_n $end
$var wire 1 g data $end
$var reg 1 "` detected $end
$var reg 1 "a dly1_data $end
$upscope $end


$scope module edge_detect_tx_fifo_full $end
$var wire 1 = clk $end
$var wire 1 > reset_n $end
$var wire 1 h data $end
$var reg 1 "b detected $end
$var reg 1 "c dly1_data $end
$upscope $end


$scope module edge_detect_max_drop $end
$var wire 1 = clk $end
$var wire 1 > reset_n $end
$var wire 1 "D data $end
$var reg 1 "d detected $end
$var reg 1 "e dly1_data $end
$upscope $end

$upscope $end

$upscope $end

$upscope $end

$upscope $end

$enddefinitions $end

#0
$dumpvars
0!
0"
bxxxxxxxxxxxxxxxxxxxxxxxxxxxxxxxx +
bxxxxxxxxxxxxxxxxxxxxxxxxxxxxxxxx )
bxxxxxxxxxxxxxxxx %
bxxx 1
bxx 0
bxxxxxxxxxxxxxxxxxxxxxxxxxxxxxxxx /
bxxx <
bxx ;
bxxxxxxxxxxxxxxxxxxxxxxxxxxxxxxxx :
0"C
0"\
1"]
x"d
0"e
0"^
0"_
0"`
1"a
0"b
0"c
x"[
0"W
0"X
0"Y
0"Z
0"S
0"O
0"P
0"Q
0"R
1"N
1"J
1"K
1"L
1"M
x"D
1"6
0"7
0^
x">
x"@
0u
b0000 e
b0000 f
0"F
bxxxxxxxxxxxxxx00 "E
b000 "=
bxxxxxxxxxxxxxxxxxxxxxxxxxxxxxxxx T
b00 "A
bxx "H
b00000000000000000000000000000001 "I
b001 "B
bxxx "G
b00000000 w
b00000000000000000000000000000000 "V
b00000000000000000000000000011111 "U
b00000000 v
bxxxxxxxxxxxxxxxxxxxxxxxxxxxxxxxx N
bxx O
bxxx P
bxxxxxxxx x
bxxxxxxxxxxxxxxxxxxxxxxxxxxxxxxxx E
b0000000000000000000000000000000000000 "8
b00 r
b001 s
bxxxxxxxxxxxxxxxxxxxxxxxxxxxxxxxx "?
bxxxxxxxx ]
b000000000000000000000000xxxxxxxx "T
bxxx "5
bxx "4
bxxxxxxxxxxxxxxxxxxxxxxxxxxxxxxxx "3
bxxx [
bxx Z
bxxxxxxxxxxxxxxxxxxxxxxxxxxxxxxxx Y
b000 "<
b00000000000000000000000000000000 ";
b00 "9
b000 ":
b001 "!
b001 ~
b0000 {
b0000 "%
b0000 z
b0000 "$
b000 }
b000 |
b000 "#
b000 ""
b001 "-
b001 ",
b0000 ")
b0000 "1
b0000 "&
b0000 "0
b000 "+
b000 "*
b000 "/
b000 ".
0#
0-
05
0$
04
06
0=
0>
xU
xF
x,
0V
0K
0t
0W
0L
0X
0M
09
0\
0_
0k
0i
0"2
0S
0a
0b
1y
0c
1d
0q
0h
1g
0"'
1"(
bxxxxxxxxxxxxxxxx ?
bxxxxxxxxxxxxxxxxxxxxxxxxxxxxxxxx C
bxxxxxxxxxxxxxxxxxxxxxxxxxxxxxxxx H
bxx I
bxxx J
x@
xA
xB
xD
0G
xQ
xR
x(
x*
x'
x&
03
02
0.
x8
x7
bxxxxxxxxxxxxxxxxxxxxxxxxxxxxxxxxxxxxx `
0l
bxxxxxxxxxxxxxxxxxxxxxxxxxxxxxxxxxxxxx m
1n
0o
b0000000000000000000000000000000000000 p
bxxxxxxxxxxxxxxxxxxxxxxxxxxxxxxxxxxxxx j
$end
#5000
1!
1=
1#
1-
15
b00000000 x
b00000000 ]
0"D
0"d
0"[
b00000000000000000000000000000000 "T
#10000
0!
0=
0#
0-
05
#15000
1!
1=
1#
1-
15
1"
1>
1$
14
16
#20000
0!
0=
0#
0-
05
#25000
1!
1=
1#
1-
15
0">
0D
0*
0"@
0U
0F
0,
b00000000000000000000000000000000 "?
b00000000000000000000000000000000 T
b00000000000000000000000000000000 E
b00000000000000000000000000000000 +
b00000000000000000000000000000000 /
b00000000000000000000000000000000 H
b00 0
b00 I
b000 1
b000 J
07
0Q
08
0R
0'
0A
0(
0B
0&
0@
b0000000000000000 %
b0000000000000000 ?
b0000000000000000 "E
b00000000000000000000000000000000 )
b00000000000000000000000000000000 C
b00 "H
b000 "G
b0000000000000000000000000000000000000 `
#30000
0!
0=
0#
0-
05
#35000
1!
1=
1#
1-
15
1'
1A
1&
1@
b00000000000000000000001000000010 )
b00000000000000000000001000000010 C
b10 "H
b010 "G
#40000
0!
0=
0#
0-
05
#45000
1!
1=
1#
1-
15
1(
1B
#50000
0!
0=
0#
0-
05
#55000
1!
1=
1#
1-
15
1">
1D
1*
b010 "B
b010 s
b10 "A
b10 r
b00000000000000000000001000000010 "I
#60000
0!
0=
0#
0-
05
#65000
1!
1=
1#
1-
15
0">
0D
0*
0'
0A
0(
0B
#70000
0!
0=
0#
0-
05
#75000
1!
1=
1#
1-
15
1'
1A
b0000000011110000 %
b0000000011110000 ?
b0000000011110000 "E
b00000000000000000000000000011111 )
b00000000000000000000000000011111 C
b00 "H
b111 "G
#80000
0!
0=
0#
0-
05
#85000
1!
1=
1#
1-
15
1(
1B
#90000
0!
0=
0#
0-
05
#95000
1!
1=
1#
1-
15
1">
1D
1*
#100000
0!
0=
0#
0-
05
#105000
1!
1=
1#
1-
15
0">
0D
0*
0'
0A
0(
0B
#110000
0!
0=
0#
0-
05
#115000
1!
1=
1#
1-
15
#120000
0!
0=
0#
0-
05
#125000
1!
1=
1#
1-
15
17
1Q
